[
  {
    "name": "MASONRY Theme Settings",
    "settings": [
      {
        "type": "paragraph",
        "content": "Thank you for buying the MASONRY theme suite by CleanThemes. ← Choose a preset style on the left to get started. SUPPORT SITE: [CLEANTHEMES.CO.UK](http:\/\/www.cleanthemes.co.uk\/masonry\/) Need some help? Contact us here: [shopify@cleanthemes.co.uk](mailto:shopify@cleanthemes.co.uk)"
      }
    ]
  },
  {
    "name": "General",
    "settings": [
      {
        "type": "header",
        "content": "Your Logo"
      },
      {
        "type": "paragraph",
        "content": "Any size logo image can be used, it'll be resized to fit your sidebar automatically. In combination with a transparent PNG file, you'll get great results. Alternatively, use a font instead (see 'typography' below)."
      },
      {
        "type": "checkbox",
        "id": "use_logo_img",
        "label": "Use your logo image?"
      },
      {
        "type": "image",
        "id": "logo.png",
        "label": "Custom logo image",
        "max-width": 300,
        "max-height": 300
      },
      {
        "type": "checkbox",
        "id": "use_logo_bg_col",
        "label": "Use background color, behind logo?"
      },
      {
        "type": "color",
        "id": "logo_bg_col",
        "label": "Logo background color"
      },
      {
        "type": "text",
        "id": "logo_top_pad",
        "label": "Space above logo"
      },
      {
        "type": "text",
        "id": "logo_bot_pad",
        "label": "Space below logo"
      },
      {
        "type": "header",
        "content": "Your Logo Subtext"
      },
      {
        "type": "checkbox",
        "id": "yi3___use_logo_subtext",
        "label": "Use custom logo subtext?"
      },
      {
        "type": "text",
        "id": "yi3___logo_subtext",
        "label": "Custom logo subtext"
      },
      {
        "type": "select",
        "id": "yi3___logo_subtext_placement",
        "label": "Logo subtext placement",
        "options": [
          {
            "value": "abovelogo",
            "label": "Above the logo"
          },
          {
            "value": "belowlogo",
            "label": "Below the logo"
          }
        ],
        "default": "belowlogo"
      },
      {
        "type": "header",
        "content": "Background"
      },
      {
        "type": "color",
        "id": "bg_col",
        "label": "Background color"
      },
      {
        "type": "select",
        "id": "bg_method",
        "label": "Background image type",
        "options": [
          {
            "value": "none",
            "label": "No background image"
          },
          {
            "value": "repeatxy",
            "label": "Tiled vertically + horizontally"
          },
          {
            "value": "centertop-repeatx",
            "label": "Aligned to top, tiled horizontally"
          },
          {
            "value": "centertop-norepeat",
            "label": "Aligned to top, centred, no tiling"
          },
          {
            "value": "full",
            "label": "Full-page"
          },
          {
            "value": "full-withmob",
            "label": "Full-page + tiled mobile alternative"
          }
        ]
      },
      {
        "type": "select",
        "id": "bg_img_file",
        "label": "Background image file",
        "options": [
          {
            "value": "bg_stock_1.jpg",
            "label": "Light"
          },
          {
            "value": "bg_stock_2.jpg",
            "label": "Dark"
          },
          {
            "value": "bg_custom.jpg",
            "label": "Custom"
          }
        ]
      },
      {
        "type": "image",
        "id": "bg_custom.jpg",
        "label": "Custom background image"
      },
      {
        "type": "image",
        "id": "mobilebg.jpg",
        "label": "Custom mobile background image Shows on smartphones & tablets only"
      },
      {
        "type": "header",
        "content": "Panel colors"
      },
      {
        "type": "paragraph",
        "content": "Page headings and pages sit on 'panels' - set the colors here. Typically, these will mimmick the settings you enter for 'Product boxes', in 'Products \/ Collections' below."
      },
      {
        "type": "color",
        "id": "block_bg",
        "label": "Background color"
      },
      {
        "type": "color",
        "id": "block_div_sub",
        "label": "Lower divider color",
        "default": "#eeeeee"
      },
      {
        "type": "color",
        "id": "block_bg_sub",
        "label": "Lower background color",
        "default": "#fafafa"
      },
      {
        "type": "header",
        "content": "Miscellaneous"
      },
      {
        "type": "header",
        "content": "Display social 'share' buttons"
      },
      {
        "type": "checkbox",
        "id": "social_show_fb",
        "label": "Facebook"
      },
      {
        "type": "checkbox",
        "id": "social_show_tw",
        "label": "Twitter"
      },
      {
        "type": "checkbox",
        "id": "social_show_go",
        "label": "Google Plus"
      },
      {
        "type": "checkbox",
        "id": "social_show_pi",
        "label": "Pinterest"
      },
      {
        "type": "checkbox",
        "id": "social_show_fa",
        "label": "Fancy"
      },
      {
        "type": "checkbox",
        "id": "mailchimp_code_use",
        "label": "Enable Mailchimp for newsletter signup *needs mailchimp form action"
      },
      {
        "type": "text",
        "id": "mailchimp_code",
        "label": "Action:"
      },
      {
        "type": "paragraph",
        "content": "[Mailchimp help →](http:\/\/cleanthemes.co.uk\/masonry\/?p=16)"
      },
      {
        "type": "text",
        "id": "blog_num_per_page",
        "label": "Number of articles shown per page (blog page)"
      },
      {
        "type": "select",
        "id": "blog_display_mode",
        "label": "Blog page article display mode",
        "options": [
          {
            "value": "masonry",
            "label": "Masonry - all blocks"
          },
          {
            "value": "masonry-under",
            "label": "Masonry - for articles only"
          },
          {
            "value": "onecol",
            "label": "Single column"
          }
        ]
      },
      {
        "type": "checkbox",
        "id": "show_gravatars",
        "label": "Enable [Gravatars](http:\/\/gravatar.com) on articles"
      },
      {
        "type": "checkbox",
        "id": "cart_terms_show",
        "label": "Enable 'terms & conditions' checkbox in cart"
      },
      {
        "type": "page",
        "id": "cart_terms_page",
        "label": "Cart terms & conditions page page to link to, if the above is activated"
      },
      {
        "type": "checkbox",
        "id": "lightbox_imgs",
        "label": "Use lightbox for any images in text areas (blogs\/pages\/product descriptions)"
      },
      {
        "type": "checkbox",
        "id": "capitalise_tags",
        "label": "Capitalise the first letter of all product tags"
      },
      {
        "type": "checkbox",
        "id": "show_404_sads",
        "label": "Show sad faces on Page Not Found page"
      }
    ]
  },
  {
    "name": "Global Colors + Styles",
    "settings": [
      {
        "type": "header",
        "content": "Buttons"
      },
      {
        "type": "color",
        "id": "btn_col",
        "label": "Button color"
      },
      {
        "type": "color",
        "id": "btn_col_alt",
        "label": "Button hover color"
      },
      {
        "type": "color",
        "id": "btn_col_txt",
        "label": "Button text color"
      },
      {
        "type": "text",
        "id": "btn_rad",
        "label": "Button rounding"
      },
      {
        "type": "header",
        "content": "Icons"
      },
      {
        "type": "select",
        "id": "social_col",
        "label": "Social icon detail color",
        "options": [
          {
            "value": "social_spr_darkgrey.png",
            "label": "Dark grey"
          },
          {
            "value": "social_spr_white.png",
            "label": "White"
          }
        ]
      },
      {
        "type": "select",
        "id": "rss_col",
        "label": "RSS icon color (blog\/article page)",
        "options": [
          {
            "value": "rss_black.png",
            "label": "Black"
          },
          {
            "value": "rss_white.png",
            "label": "White"
          },
          {
            "value": "rss_color.png",
            "label": "color"
          }
        ]
      },
      {
        "type": "select",
        "id": "meta_col",
        "label": "Meta icons color (blog page)",
        "options": [
          {
            "value": "meta_icons_grey.png",
            "label": "Grey"
          },
          {
            "value": "meta_icons_white.png",
            "label": "White"
          }
        ]
      }
    ]
  },
  {
    "name": "Sidebar Navigation Panel",
    "settings": [
      {
        "type": "header",
        "content": "Circles"
      },
      {
        "type": "color",
        "id": "btn_panel_col",
        "label": "Circle color"
      },
      {
        "type": "color",
        "id": "btn_panel_col_alt",
        "label": "Circle hover color"
      },
      {
        "type": "color",
        "id": "btn_panel_col_alt_2",
        "label": "Circle highlight color"
      },
      {
        "type": "color",
        "id": "btn_panel_col_txt",
        "label": "Circle text color"
      },
      {
        "type": "header",
        "content": "Colors"
      },
      {
        "type": "color",
        "id": "panel_bg_col",
        "label": "Background"
      },
      {
        "type": "text",
        "id": "panel_bg_opacity",
        "label": "Background transparency (0 = transparent, 1 = opaque, 0.5 would give 50% opacity *NOTE: will always be opaque in Internet Explorer pre v9.)",
        "default": "1"
      },
      {
        "type": "color",
        "id": "panel_bord_col",
        "label": "Divider lines"
      },
      {
        "type": "color",
        "id": "panel_txt_pri_col",
        "label": "Primary text"
      },
      {
        "type": "color",
        "id": "panel_txt_sec_col",
        "label": "Secondary text"
      },
      {
        "type": "color",
        "id": "panel_txt_ter_col",
        "label": "Tertiary text"
      },
      {
        "type": "color",
        "id": "panel_nav_act_txt",
        "label": "Highlighted row text"
      },
      {
        "type": "color",
        "id": "panel_nav_act_txt_sub",
        "label": "Child-nav row text"
      },
      {
        "type": "color",
        "id": "panel_nav_act_txt_1",
        "label": "Highlighted row text (1st level)"
      },
      {
        "type": "color",
        "id": "panel_nav_act_txt_2",
        "label": "Highlighted row text (2nd level)"
      },
      {
        "type": "color",
        "id": "panel_nav_act_txt_3",
        "label": "Highlighted row text (3rd level)"
      },
      {
        "type": "color",
        "id": "panel_nav_act_bg",
        "label": "Highlighted row background (1st level)"
      },
      {
        "type": "color",
        "id": "panel_nav_act_bg_2",
        "label": "Highlighted row background (2nd level)"
      },
      {
        "type": "color",
        "id": "panel_nav_act_bg_3",
        "label": "Highlighted row background (3rd level)"
      },
      {
        "type": "color",
        "id": "panel_inp_bg",
        "label": "Highlighted input background The color shown when a visitor clicks in the SEARCH or NEWSLETTER fields"
      },
      {
        "type": "color",
        "id": "panel_inp_txt",
        "label": "Highlighted input text"
      },
      {
        "type": "header",
        "content": "General Sidebar Settings"
      },
      {
        "type": "text",
        "id": "font_size_nav",
        "label": "Navigation in side-panel font size"
      },
      {
        "type": "text",
        "id": "nav_footer_gap",
        "label": "Gap between bottom of nav and footer",
        "default": "100"
      },
      {
        "type": "checkbox",
        "id": "panel_bord_show",
        "label": "Show vertical line to right of panel Useful when you have the same background color as the site, or when you've set the sidebar color to be transparent."
      },
      {
        "type": "checkbox",
        "id": "panel_nav_show_second_col",
        "label": "Show second nav column"
      },
      {
        "type": "checkbox",
        "id": "nav_indent_subsub",
        "label": "Indent third tier of nav"
      },
      {
        "type": "checkbox",
        "id": "show_cart_whenempty",
        "label": "Show cart info even when empty If not checked, the cart will only appear in the sidebar once an iten has been added to the cart"
      },
      {
        "type": "checkbox",
        "id": "show_tocheckout",
        "label": "Show Checkout → under cart summary"
      },
      {
        "type": "checkbox",
        "id": "show_signup",
        "label": "Show newsletter signup"
      },
      {
        "type": "header",
        "content": "Social icons"
      },
      {
        "type": "paragraph",
        "content": "These are links to your own social sites, these show at the bottom of the sidebar. Enter the full URLs of your social sites."
      },
      {
        "type": "paragraph",
        "content": "Facebook"
      },
      {
        "type": "checkbox",
        "id": "soc_facebook_en",
        "label": "Enable"
      },
      {
        "type": "text",
        "id": "soc_facebook_url",
        "label": "URL"
      },
      {
        "type": "paragraph",
        "content": "Twitter"
      },
      {
        "type": "checkbox",
        "id": "soc_twitter_en",
        "label": "Enable"
      },
      {
        "type": "text",
        "id": "soc_twitter_url",
        "label": "URL"
      },
      {
        "type": "paragraph",
        "content": "RSS"
      },
      {
        "type": "checkbox",
        "id": "soc_rss_en",
        "label": "Enable"
      },
      {
        "type": "text",
        "id": "soc_rss_url",
        "label": "URL"
      },
      {
        "type": "paragraph",
        "content": "Pinterest"
      },
      {
        "type": "checkbox",
        "id": "soc_pinterest_en",
        "label": "Enable"
      },
      {
        "type": "text",
        "id": "soc_pinterest_url",
        "label": "URL"
      },
      {
        "type": "paragraph",
        "content": "Google+"
      },
      {
        "type": "checkbox",
        "id": "soc_google_en",
        "label": "Enable"
      },
      {
        "type": "text",
        "id": "soc_google_url",
        "label": "URL"
      },
      {
        "type": "paragraph",
        "content": "Instagram"
      },
      {
        "type": "checkbox",
        "id": "soc_instagram_en",
        "label": "Enable"
      },
      {
        "type": "text",
        "id": "soc_instagram_url",
        "label": "URL"
      },
      {
        "type": "paragraph",
        "content": "Vimeo"
      },
      {
        "type": "checkbox",
        "id": "soc_vimeo_en",
        "label": "Enable"
      },
      {
        "type": "text",
        "id": "soc_vimeo_url",
        "label": "URL"
      },
      {
        "type": "paragraph",
        "content": "YouTube"
      },
      {
        "type": "checkbox",
        "id": "soc_youtube_en",
        "label": "Enable"
      },
      {
        "type": "text",
        "id": "soc_youtube_url",
        "label": "URL"
      },
      {
        "type": "paragraph",
        "content": "Flickr"
      },
      {
        "type": "checkbox",
        "id": "soc_flickr_en",
        "label": "Enable"
      },
      {
        "type": "text",
        "id": "soc_flickr_url",
        "label": "URL"
      },
      {
        "type": "paragraph",
        "content": "Tumblr"
      },
      {
        "type": "checkbox",
        "id": "soc_tumblr_en",
        "label": "Enable"
      },
      {
        "type": "text",
        "id": "soc_tumblr_url",
        "label": "URL"
      },
      {
        "type": "paragraph",
        "content": "Options"
      },
      {
        "type": "checkbox",
        "id": "soc_icons_double",
        "label": "Show double-size"
      },
      {
        "type": "select",
        "id": "social_icons_placement",
        "label": "Social page icon placement",
        "options": [
          {
            "value": "footerundercopy",
            "label": "in footer under copyright text"
          },
          {
            "value": "footerovercopy",
            "label": "in footer above copyright text"
          },
          {
            "value": "underlogo",
            "label": "under logo"
          }
        ]
      },
      {
        "type": "header",
        "content": "Social Affiliate Links",
        "info": "These \"Social Affiliate Links\" are based off the \"Social Icons\"."
      },
      {
        "type": "paragraph",
        "content": "These are links to your affiliates' websites, these show at the bottom of the sidebar. Enter the names and full URLs of your your affiliates' websites."
      },
      {
        "type": "paragraph",
        "content": "Affiliate #1"
      },
      {
        "type": "checkbox",
        "id": "yi3___soc_aff_one_en",
        "label": "Enable"
      },
      {
        "type": "text",
        "id": "yi3___soc_aff_one_name",
        "label": "Name",
        "info": "Used as text to accompany image (leave blank to only use image)."
      },
      {
        "type": "text",
        "id": "yi3___soc_aff_one_desc",
        "label": "Description",
        "info": "Used for SEO and accessibility."
      },
      {
        "type": "text",
        "id": "yi3___soc_aff_one_url",
        "label": "URL"
      },
      {
        "type": "image",
        "id": "yi3___soc_aff_one_img.png",
        "label": "Image"
      },
      {
        "type": "checkbox",
        "id": "yi3___soc_aff_one_bord",
        "label": "Add Border",
        "info": "The border will be between the image and the name (if given)"
      },
      {
        "type": "paragraph",
        "content": "Affiliate #2"
      },
      {
        "type": "checkbox",
        "id": "yi3___soc_aff_two_en",
        "label": "Enable"
      },
      {
        "type": "text",
        "id": "yi3___soc_aff_two_name",
        "label": "Name",
        "info": "Used as text to accompany image (leave blank to only use image)."
      },
      {
        "type": "text",
        "id": "yi3___soc_aff_two_desc",
        "label": "Description",
        "info": "Used for SEO and accessibility."
      },
      {
        "type": "text",
        "id": "yi3___soc_aff_two_url",
        "label": "URL"
      },
      {
        "type": "image",
        "id": "yi3___soc_aff_two_img.png",
        "label": "Image"
      },
      {
        "type": "checkbox",
        "id": "yi3___soc_aff_two_bord",
        "label": "Add Border",
        "info": "The border will be between the image and the name (if given)"
      },
      {
        "type": "paragraph",
        "content": "Affiliate #3"
      },
      {
        "type": "checkbox",
        "id": "yi3___soc_aff_three_en",
        "label": "Enable"
      },
      {
        "type": "text",
        "id": "yi3___soc_aff_three_name",
        "label": "Name",
        "info": "Used as text to accompany image (leave blank to only use image)."
      },
      {
        "type": "text",
        "id": "yi3___soc_aff_three_desc",
        "label": "Description",
        "info": "Used for SEO and accessibility."
      },
      {
        "type": "text",
        "id": "yi3___soc_aff_three_url",
        "label": "URL"
      },
      {
        "type": "image",
        "id": "yi3___soc_aff_three_img.png",
        "label": "Image"
      },
      {
        "type": "checkbox",
        "id": "yi3___soc_aff_three_bord",
        "label": "Add Border",
        "info": "The border will be between the image and the name (if given)"
      },
      {
        "type": "paragraph",
        "content": "Affiliate #4"
      },
      {
        "type": "checkbox",
        "id": "yi3___soc_aff_four_en",
        "label": "Enable"
      },
      {
        "type": "text",
        "id": "yi3___soc_aff_four_name",
        "label": "Name",
        "info": "Used as text to accompany image (leave blank to only use image)."
      },
      {
        "type": "text",
        "id": "yi3___soc_aff_four_desc",
        "label": "Description",
        "info": "Used for SEO and accessibility."
      },
      {
        "type": "text",
        "id": "yi3___soc_aff_four_url",
        "label": "URL"
      },
      {
        "type": "image",
        "id": "yi3___soc_aff_four_img.png",
        "label": "Image"
      },
      {
        "type": "checkbox",
        "id": "yi3___soc_aff_four_bord",
        "label": "Add Border",
        "info": "The border will be between the image and the name (if given)"
      },
      {
        "type": "paragraph",
        "content": "Affiliate #5"
      },
      {
        "type": "checkbox",
        "id": "yi3___soc_aff_five_en",
        "label": "Enable"
      },
      {
        "type": "text",
        "id": "yi3___soc_aff_five_name",
        "label": "Name",
        "info": "Used as text to accompany image (leave blank to only use image)."
      },
      {
        "type": "text",
        "id": "yi3___soc_aff_five_desc",
        "label": "Description",
        "info": "Used for SEO and accessibility."
      },
      {
        "type": "text",
        "id": "yi3___soc_aff_five_url",
        "label": "URL"
      },
      {
        "type": "image",
        "id": "yi3___soc_aff_five_img.png",
        "label": "Image"
      },
      {
        "type": "checkbox",
        "id": "yi3___soc_aff_five_bord",
        "label": "Add Border",
        "info": "The border will be between the image and the name (if given)"
      },
      {
        "type": "paragraph",
        "content": "Affiliate #6"
      },
      {
        "type": "checkbox",
        "id": "yi3___soc_aff_six_en",
        "label": "Enable"
      },
      {
        "type": "text",
        "id": "yi3___soc_aff_six_name",
        "label": "Name",
        "info": "Used as text to accompany image (leave blank to only use image)."
      },
      {
        "type": "text",
        "id": "yi3___soc_aff_six_desc",
        "label": "Description",
        "info": "Used for SEO and accessibility."
      },
      {
        "type": "text",
        "id": "yi3___soc_aff_six_url",
        "label": "URL"
      },
      {
        "type": "image",
        "id": "yi3___soc_aff_six_img.png",
        "label": "Image"
      },
      {
        "type": "checkbox",
        "id": "yi3___soc_aff_six_bord",
        "label": "Add Border",
        "info": "The border will be between the image and the name (if given)"
      },
      {
        "type": "paragraph",
        "content": "Affiliate #7"
      },
      {
        "type": "checkbox",
        "id": "yi3___soc_aff_seven_en",
        "label": "Enable"
      },
      {
        "type": "text",
        "id": "yi3___soc_aff_seven_name",
        "label": "Name",
        "info": "Used as text to accompany image (leave blank to only use image)."
      },
      {
        "type": "text",
        "id": "yi3___soc_aff_seven_desc",
        "label": "Description",
        "info": "Used for SEO and accessibility."
      },
      {
        "type": "text",
        "id": "yi3___soc_aff_seven_url",
        "label": "URL"
      },
      {
        "type": "image",
        "id": "yi3___soc_aff_seven_img.png",
        "label": "Image"
      },
      {
        "type": "checkbox",
        "id": "yi3___soc_aff_seven_bord",
        "label": "Add Border",
        "info": "The border will be between the image and the name (if given)"
      },
      {
        "type": "paragraph",
        "content": "Affiliate #8"
      },
      {
        "type": "checkbox",
        "id": "yi3___soc_aff_eight_en",
        "label": "Enable"
      },
      {
        "type": "text",
        "id": "yi3___soc_aff_eight_name",
        "label": "Name",
        "info": "Used as text to accompany image (leave blank to only use image)."
      },
      {
        "type": "text",
        "id": "yi3___soc_aff_eight_desc",
        "label": "Description",
        "info": "Used for SEO and accessibility."
      },
      {
        "type": "text",
        "id": "yi3___soc_aff_eight_url",
        "label": "URL"
      },
      {
        "type": "image",
        "id": "yi3___soc_aff_eight_img.png",
        "label": "Image"
      },
      {
        "type": "checkbox",
        "id": "yi3___soc_aff_eight_bord",
        "label": "Add Border",
        "info": "The border will be between the image and the name (if given)"
      },
      {
        "type": "paragraph",
        "content": "Affiliate #9"
      },
      {
        "type": "checkbox",
        "id": "yi3___soc_aff_nine_en",
        "label": "Enable"
      },
      {
        "type": "text",
        "id": "yi3___soc_aff_nine_name",
        "label": "Name",
        "info": "Used as text to accompany image (leave blank to only use image)."
      },
      {
        "type": "text",
        "id": "yi3___soc_aff_nine_desc",
        "label": "Description",
        "info": "Used for SEO and accessibility."
      },
      {
        "type": "text",
        "id": "yi3___soc_aff_nine_url",
        "label": "URL"
      },
      {
        "type": "image",
        "id": "yi3___soc_aff_nine_img.png",
        "label": "Image"
      },
      {
        "type": "checkbox",
        "id": "yi3___soc_aff_nine_bord",
        "label": "Add Border",
        "info": "The border will be between the image and the name (if given)"
      },
      {
        "type": "paragraph",
        "content": "Affiliate #10"
      },
      {
        "type": "checkbox",
        "id": "yi3___soc_aff_ten_en",
        "label": "Enable"
      },
      {
        "type": "text",
        "id": "yi3___soc_aff_ten_name",
        "label": "Name",
        "info": "Used as text to accompany image (leave blank to only use image)."
      },
      {
        "type": "text",
        "id": "yi3___soc_aff_ten_desc",
        "label": "Description",
        "info": "Used for SEO and accessibility."
      },
      {
        "type": "text",
        "id": "yi3___soc_aff_ten_url",
        "label": "URL"
      },
      {
        "type": "image",
        "id": "yi3___soc_aff_ten_img.png",
        "label": "Image"
      },
      {
        "type": "checkbox",
        "id": "yi3___soc_aff_ten_bord",
        "label": "Add Border",
        "info": "The border will be between the image and the name (if given)"
      },
      {
        "type": "paragraph",
        "content": "Options"
      },
      {
        "type": "checkbox",
        "id": "yi3___soc_aff_icons_double",
        "label": "Show double-size"
      },
      {
        "type": "select",
        "id": "yi3___social_affiliate_icons_placement",
        "label": "Social affiliate link placement",
        "options": [
          {
            "value": "beneathsocialicons",
            "label": "beneath social icons"
          }
        ],
        "default": "beneathsocialicons",
        "info": "Currently, the theme only supports one location."
      },
      {
        "type": "header",
        "content": "Footer"
      },
      {
        "type": "paragraph",
        "content": "This shows at the bottom of the sidebar. Note that on a smartphone, this will show at the very bottom of the page."
      },
      {
        "type": "textarea",
        "id": "footer_copy",
        "label": "Additional footer text",
        "info": "(shows above the copyright text, enter <br> for a new line)"
      },
      {
        "type": "page",
        "id": "footer_page_under_copy",
        "label": "Content to show at the very bottom of panel\/footer (choose a page, you can use this for card payment icons or seals)"
      },
      {
        "type": "checkbox",
        "id": "footer_show_copyright",
        "label": "Show copyright notice"
      },
      {
        "type": "checkbox",
        "id": "footer_show_themeby",
        "label": "Show 'Theme by...'"
      },
      {
        "type": "header",
        "content": "Payment Options"
      },
      {
        "type": "select",
        "id": "pay_icon_img",
        "label": "Icon colour",
        "options": [
          {
            "value": "payment_spr_white.png",
            "label": "Light"
          },
          {
            "value": "payment_spr_grey.png",
            "label": "Dark"
          }
        ]
      },
      {
        "type": "checkbox",
        "id": "pay_paypal",
        "label": "PayPal"
      },
      {
        "type": "checkbox",
        "id": "pay_visa",
        "label": "Visa"
      },
      {
        "type": "checkbox",
        "id": "pay_mastercard",
        "label": "Mastercard"
      },
      {
        "type": "checkbox",
        "id": "pay_amex",
        "label": "American Express"
      },
      {
        "type": "checkbox",
        "id": "pay_discover",
        "label": "Discover"
      },
      {
        "type": "checkbox",
        "id": "pay_cirrus",
        "label": "Cirrus"
      },
      {
        "type": "checkbox",
        "id": "pay_maestro",
        "label": "Maestro"
      },
      {
        "type": "checkbox",
        "id": "pay_google_wallet",
        "label": "Google Wallet"
      },
      {
        "type": "checkbox",
        "id": "pay_dankort",
        "label": "Dankort"
      }
    ]
  },
  {
    "name": "Homepage Setup",
    "settings": [
      {
        "type": "header",
        "content": "Collections"
      },
      {
        "type": "collection",
        "id": "home_coll",
        "label": "Products to display - select collection"
      },
      {
        "type": "link_list",
        "id": "home_coll_list",
        "label": "Collection thumbnails Create a link list of collections - choosing this option will display the thumbnails of the collections contained in your chosen linklist."
      },
      {
        "type": "select",
        "id": "home_coll_size",
        "label": "Size of collection thumb box",
        "options": [
          {
            "value": "medium",
            "label": "1 column"
          },
          {
            "value": "large",
            "label": "2 columns"
          },
          {
            "value": "grande",
            "label": "3 columns"
          }
        ]
      },
      {
        "type": "checkbox",
        "id": "home_coll_border",
        "label": "Show borders on collection image boxes"
      },
      {
        "type": "checkbox",
        "id": "home_coll_title",
        "label": "Show title at the bottom of collection image boxes"
      },
      {
        "type": "header",
        "content": "Adverts"
      },
      {
        "type": "paragraph",
        "content": "Add some images here, and link them to any pages you like. They will be automatically resized for you, either large or small"
      },
      {
        "type": "image",
        "id": "ad_1_img.png",
        "label": "Ad 1 - Image"
      },
      {
        "type": "text",
        "id": "ad_1_src",
        "label": "Ad 1 - Link"
      },
      {
        "type": "text",
        "id": "ad_1_title",
        "label": "Ad 1 - Title + Alt text"
      },
      {
        "type": "select",
        "id": "ad_1_show",
        "label": "Ad 1 - Status \/ Size",
        "options": [
          {
            "value": "",
            "label": "Disabled"
          },
          {
            "value": "normal",
            "label": "Show - 1 column"
          },
          {
            "value": "large",
            "label": "Show - 2 columns"
          },
          {
            "value": "grande",
            "label": "Show - 3 columns"
          },
          {
            "value": "uber",
            "label": "Show - 4 columns"
          }
        ]
      },
      {
        "type": "select",
        "id": "ad_1_bord",
        "label": "Ad 1 - Border\/transparency",
        "options": [
          {
            "value": "border",
            "label": "Standard border"
          },
          {
            "value": "none",
            "label": "No border"
          },
          {
            "value": "trans",
            "label": "Transparent background"
          }
        ]
      },
      {
        "type": "image",
        "id": "ad_2_img.png",
        "label": "Ad 2 - Image"
      },
      {
        "type": "text",
        "id": "ad_2_src",
        "label": "Ad 2 - Link"
      },
      {
        "type": "text",
        "id": "ad_2_title",
        "label": "Ad 2 - Title + Alt text"
      },
      {
        "type": "select",
        "id": "ad_2_show",
        "label": "Ad 2 - Status \/ Size",
        "options": [
          {
            "value": "",
            "label": "Disabled"
          },
          {
            "value": "normal",
            "label": "Show - 1 column"
          },
          {
            "value": "large",
            "label": "Show - 2 columns"
          },
          {
            "value": "grande",
            "label": "Show - 3 columns"
          },
          {
            "value": "uber",
            "label": "Show - 4 columns"
          }
        ]
      },
      {
        "type": "select",
        "id": "ad_2_bord",
        "label": "Ad 2 - Border\/transparency",
        "options": [
          {
            "value": "border",
            "label": "Standard border"
          },
          {
            "value": "none",
            "label": "No border"
          },
          {
            "value": "trans",
            "label": "Transparent background"
          }
        ]
      },
      {
        "type": "image",
        "id": "ad_3_img.png",
        "label": "Ad 3 - Image"
      },
      {
        "type": "text",
        "id": "ad_3_src",
        "label": "Ad 3 - Link"
      },
      {
        "type": "text",
        "id": "ad_3_title",
        "label": "Ad 3 - Title + Alt text"
      },
      {
        "type": "select",
        "id": "ad_3_show",
        "label": "Ad 3 - Status \/ Size",
        "options": [
          {
            "value": "",
            "label": "Disabled"
          },
          {
            "value": "normal",
            "label": "Show - 1 column"
          },
          {
            "value": "large",
            "label": "Show - 2 columns"
          },
          {
            "value": "grande",
            "label": "Show - 3 columns"
          },
          {
            "value": "uber",
            "label": "Show - 4 columns"
          }
        ]
      },
      {
        "type": "select",
        "id": "ad_3_bord",
        "label": "Ad 3 - Border\/transparency",
        "options": [
          {
            "value": "border",
            "label": "Standard border"
          },
          {
            "value": "none",
            "label": "No border"
          },
          {
            "value": "trans",
            "label": "Transparent background"
          }
        ]
      },
      {
        "type": "header",
        "content": "Additional homepage boxes"
      },
      {
        "type": "paragraph",
        "content": "Put your additional text\/images\/videos into pages and create a link list that contains links to each of these pages. Then select the linklist you've made below."
      },
      {
        "type": "paragraph",
        "content": "* By default, these areas have no border. To add a border, enter the text 'textwithborder' or 'imagewithborder' into the name of the link list item name."
      },
      {
        "type": "paragraph",
        "content": "* To show as one column width, make sure you have the word 'small' in the name of your link list item"
      },
      {
        "type": "paragraph",
        "content": "(eg. 'Homepage video imagewithborder small')."
      },
      {
        "type": "link_list",
        "id": "home_add_pages",
        "label": "Select linklist of pages for additional boxes"
      },
      {
        "type": "page",
        "id": "home_page",
        "label": "Homepage intro text page This always shows top left, leave blank to hide from homepage display."
      },
      {
        "type": "select",
        "id": "home_page_size",
        "label": "Homepage intro text size",
        "options": [
          {
            "value": "large",
            "label": "2 columns"
          },
          {
            "value": "grande",
            "label": "3 columns"
          },
          {
            "value": "uber",
            "label": "4 columns"
          }
        ]
      },
      {
        "type": "checkbox",
        "id": "home_text_contracted",
        "label": "Homepage intro text - show truncated with 'read more' button"
      },
      {
        "type": "header",
        "content": "Additional homepage boxes"
      },
      {
        "type": "paragraph",
        "content": "You can have the homepage display all elements randomly each time the page is loaded:"
      },
      {
        "type": "checkbox",
        "id": "home_rand",
        "label": "Randomise homepage blocks?"
      }
    ]
  },
  {
    "name": "Products \/ Collections",
    "settings": [
      {
        "type": "header",
        "content": "Product Detail Page"
      },
      {
        "type": "checkbox",
        "id": "enable_ajax_add",
        "label": "Enable AJAX add-to-cart also works on collection pages, disable if you are using Line Item Properties"
      },
      {
        "type": "checkbox",
        "id": "enable_var_img_link",
        "label": "Link variants to images give your image alt tags the same name as the variant option"
      },
      {
        "type": "text",
        "id": "var_img_link_optname",
        "label": "If variant-image link enabled, which option to link e.g. Color"
      },
      {
        "type": "checkbox",
        "id": "prod_show_type",
        "label": "Show 'See more type'"
      },
      {
        "type": "checkbox",
        "id": "prod_show_tags",
        "label": "Show tags"
      },
      {
        "type": "checkbox",
        "id": "prod_show_vendor",
        "label": "Show Vendor"
      },
      {
        "type": "checkbox",
        "id": "prod_desc_under",
        "label": "Move product description underneath the images and options"
      },
      {
        "type": "checkbox",
        "id": "prod_img_bord_show",
        "label": "Show border on large image"
      },
      {
        "type": "text",
        "id": "prod_img_bord_px",
        "label": "Thickness:"
      },
      {
        "type": "color",
        "id": "prod_img_bord_col",
        "label": "Border color"
      },
      {
        "type": "header",
        "content": "Product thumbnail display, in collection, related and home pages"
      },
      {
        "type": "select",
        "id": "prod_block_display",
        "label": "Product thumb - display mode",
        "options": [
          {
            "value": "info-quick",
            "label": "Info + quick-buy"
          },
          {
            "value": "info",
            "label": "Info only"
          },
          {
            "value": "hover-dark",
            "label": "Hover for info - dark"
          },
          {
            "value": "hover-light",
            "label": "Hover for info - light"
          },
          {
            "value": "hover-dark-quick",
            "label": "Hover for info + quick-buy - dark"
          },
          {
            "value": "hover-light-quick",
            "label": "Hover for info + quick-buy - light"
          },
          {
            "value": "info-hover-dark-quick",
            "label": "Everything, all of the above - dark"
          },
          {
            "value": "info-hover-light-quick",
            "label": "Everything, all of the above - light"
          },
          {
            "value": "",
            "label": "Plain, none of the above"
          }
        ]
      },
      {
        "type": "checkbox",
        "id": "prod_block_image_margin",
        "label": "Product thumb - show margin around boxes"
      },
      {
        "type": "color",
        "id": "prod_block_title_col",
        "label": "Product name color"
      },
      {
        "type": "color",
        "id": "prod_block_title_hov_col",
        "label": "Product name hover color"
      },
      {
        "type": "header",
        "content": "Product boxes"
      },
      {
        "type": "paragraph",
        "content": "Typically, these will mimmick the settings you enter for 'Panel colors', in 'General' above."
      },
      {
        "type": "color",
        "id": "block_prod_bg",
        "label": "Background color",
        "default": "#ffffff"
      },
      {
        "type": "color",
        "id": "block_prod_div_sub",
        "label": "Lower divider color",
        "default": "#eeeeee"
      },
      {
        "type": "color",
        "id": "block_prod_sub_bg",
        "label": "Lower background color",
        "default": "#ffffff"
      },
      {
        "type": "header",
        "content": "Product thumbnail stickers"
      },
      {
        "type": "select",
        "id": "prod_block_label_loc",
        "label": "Overlay sticker location For items on sale, out of stock or with custom tag",
        "options": [
          {
            "value": "tl",
            "label": "Top left"
          },
          {
            "value": "tc",
            "label": "Top centre"
          },
          {
            "value": "tr",
            "label": "Top right"
          },
          {
            "value": "c",
            "label": "Centre"
          },
          {
            "value": "bl",
            "label": "Bottom left"
          },
          {
            "value": "bc",
            "label": "Bottom centre"
          },
          {
            "value": "br",
            "label": "Bottom right"
          }
        ]
      },
      {
        "type": "checkbox",
        "id": "prod_label_sale_enabled",
        "label": "Show Sale sticker"
      },
      {
        "type": "color",
        "id": "coll_col_sale",
        "label": "Sale sticker color",
        "default": "#FC4B3A"
      },
      {
        "type": "checkbox",
        "id": "prod_label_soldout_enabled",
        "label": "Show Sold out sticker"
      },
      {
        "type": "color",
        "id": "coll_col_sold",
        "label": "Sold out sticker color",
        "default": "#8090f0"
      },
      {
        "type": "color",
        "id": "coll_col_gen",
        "label": "Custom sticker color",
        "default": "#444444"
      },
      {
        "type": "checkbox",
        "id": "prod_block_label_shad",
        "label": "Show shadow under sticker"
      },
      {
        "type": "text",
        "id": "prod_stock_warn_limit",
        "label": "Automatic 'Only X left!' warning sticker Leave empty to not show. Will ONLY work for products with only one variant. Uses the 'Sold out' sticker color from above."
      },
      {
        "type": "header",
        "content": "Related Products"
      },
      {
        "type": "select",
        "id": "prod_rel_meth",
        "label": "Related products method Tag-specified collection example: meta-related-collection-bluedresses Tag-specified product handle example: meta-related-product-bluedress Please note that the quick-buy will not show on related products when using 'Tag-specified product handle'",
        "options": [
          {
            "value": "collection",
            "label": "Same collection (automatic)"
          },
          {
            "value": "tag-coll",
            "label": "Tag-specified collection"
          },
          {
            "value": "tag-handle",
            "label": "Tag-specified product handle"
          },
          {
            "value": "",
            "label": "None"
          }
        ]
      },
      {
        "type": "text",
        "id": "prod_rel_limit",
        "label": "Related products - limit"
      },
      {
        "type": "header",
        "content": "Collections"
      },
      {
        "type": "text",
        "id": "coll_num_per_page",
        "label": "Number of products to show per page"
      },
      {
        "type": "checkbox",
        "id": "hide_col_title",
        "label": "Completely hide collection title box hides entire box that contains title, description, social buttons"
      },
      {
        "type": "checkbox",
        "id": "show_col_desc_def",
        "label": "Collapse collection description shows a 'more info' toggle to display the full collection description"
      },
      {
        "type": "select",
        "id": "coll_title_width",
        "label": "Title\/description block width",
        "options": [
          {
            "value": "large",
            "label": "2 columns"
          },
          {
            "value": "grande",
            "label": "3 columns"
          }
        ]
      },
      {
        "type": "checkbox",
        "id": "show_tagfilt",
        "label": "Show tag filter dropdown"
      },
      {
        "type": "select",
        "id": "coll_show_paging",
        "label": "Show paging controls:",
        "options": [
          {
            "value": "bottom",
            "label": "Below only"
          },
          {
            "value": "top-bottom",
            "label": "Above and below"
          }
        ]
      }
    ]
  },
  {
    "name": "Typography",
    "settings": [
      {
        "type": "paragraph",
        "content": "To use custom Google Web Fonts, go to"
      },
      {
        "type": "paragraph",
        "content": "[google.com\/webfonts](http:\/\/www.google.com\/webfonts)"
      },
      {
        "type": "paragraph",
        "content": "and pick your font. On the instructions section it will show you the address of the font, e.g 'http:\/\/fonts.googleapis.com\/css?family=Averia+Libre:700' - just enter the font part (eg: 'Averia+Libre:700') here, select 'Custom' and the template will do the rest."
      },
      {
        "type": "header",
        "content": "Fonts - Base"
      },
      {
        "type": "select",
        "id": "font_fam_base",
        "label": "Base font",
        "options": [
          {
            "value": "Futura, 'Century Gothic', AppleGothic, sans-serif",
            "label": "Futura",
            "group": "Web Safe"
          },
          {
            "value": "Arial, sans-serif",
            "label": "Arial",
            "group": "Web Safe"
          },
          {
            "value": "Georgia, Utopia, 'Times New Roman', Times, serif",
            "label": "Georgia",
            "group": "Web Safe"
          },
          {
            "value": "'Times New Roman', Times, serif",
            "label": "Times New Roman",
            "group": "Web Safe"
          },
          {
            "value": "GWF|Arvo",
            "label": "Arvo",
            "group": "Google Web Fonts"
          },
          {
            "value": "GWF|Brawler",
            "label": "Brawler",
            "group": "Google Web Fonts"
          },
          {
            "value": "GWF|Droid+Serif",
            "label": "Droid Serif",
            "group": "Google Web Fonts"
          },
          {
            "value": "GWF|Montserrat",
            "label": "Montserrat",
            "group": "Google Web Fonts"
          },
          {
            "value": "GWF|Open+Sans",
            "label": "Open Sans",
            "group": "Google Web Fonts"
          },
          {
            "value": "GWF|CUSTOM",
            "label": "-- Custom --",
            "group": "Google Web Fonts"
          }
        ]
      },
      {
        "type": "text",
        "id": "font_fam_base_cust",
        "label": "Custom:"
      },
      {
        "type": "text",
        "id": "font_size_base",
        "label": "Base font size"
      },
      {
        "type": "header",
        "content": "Fonts - Headings"
      },
      {
        "type": "select",
        "id": "font_fam_head",
        "label": "Headings font",
        "options": [
          {
            "value": "Futura, 'Century Gothic', AppleGothic, sans-serif",
            "label": "Futura",
            "group": "Web Safe"
          },
          {
            "value": "Arial, sans-serif",
            "label": "Arial",
            "group": "Web Safe"
          },
          {
            "value": "Georgia, Utopia, 'Times New Roman', Times, serif",
            "label": "Georgia",
            "group": "Web Safe"
          },
          {
            "value": "'Times New Roman', Times, serif",
            "label": "Times New Roman",
            "group": "Web Safe"
          },
          {
            "value": "GWF|Arvo",
            "label": "Arvo",
            "group": "Google Web Fonts"
          },
          {
            "value": "GWF|Brawler",
            "label": "Brawler",
            "group": "Google Web Fonts"
          },
          {
            "value": "GWF|Droid+Serif",
            "label": "Droid Serif",
            "group": "Google Web Fonts"
          },
          {
            "value": "GWF|Montserrat",
            "label": "Montserrat",
            "group": "Google Web Fonts"
          },
          {
            "value": "GWF|Open+Sans",
            "label": "Open Sans",
            "group": "Google Web Fonts"
          },
          {
            "value": "GWF|CUSTOM",
            "label": "-- Custom --",
            "group": "Google Web Fonts"
          }
        ]
      },
      {
        "type": "text",
        "id": "font_fam_head_cust",
        "label": "Custom:"
      },
      {
        "type": "text",
        "id": "font_size_head",
        "label": "Heading font size"
      },
      {
        "type": "header",
        "content": "Fonts - Store name"
      },
      {
        "type": "select",
        "id": "font_fam_shoptitle",
        "label": "Store name font (instead of logo image)",
        "options": [
          {
            "value": "Futura, 'Century Gothic', AppleGothic, sans-serif",
            "label": "Futura",
            "group": "Web Safe"
          },
          {
            "value": "Arial, sans-serif",
            "label": "Arial",
            "group": "Web Safe"
          },
          {
            "value": "Georgia, Utopia, 'Times New Roman', Times, serif",
            "label": "Georgia",
            "group": "Web Safe"
          },
          {
            "value": "'Times New Roman', Times, serif",
            "label": "Times New Roman",
            "group": "Web Safe"
          },
          {
            "value": "GWF|Arvo",
            "label": "Arvo",
            "group": "Google Web Fonts"
          },
          {
            "value": "GWF|Brawler",
            "label": "Brawler",
            "group": "Google Web Fonts"
          },
          {
            "value": "GWF|Droid+Serif",
            "label": "Droid Serif",
            "group": "Google Web Fonts"
          },
          {
            "value": "GWF|Montserrat",
            "label": "Montserrat",
            "group": "Google Web Fonts"
          },
          {
            "value": "GWF|Open+Sans",
            "label": "Open Sans",
            "group": "Google Web Fonts"
          },
          {
            "value": "GWF|CUSTOM",
            "label": "-- Custom --",
            "group": "Google Web Fonts"
          }
        ]
      },
      {
        "type": "text",
        "id": "font_fam_shoptitle_cust",
        "label": "Custom:"
      },
      {
        "type": "text",
        "id": "font_size_shoptitle",
        "label": "Store name font size"
      },
      {
        "type": "header",
        "content": "Fonts - Logo Subtext"
      },
      {
        "type": "select",
        "id": "yi3___font_fam_logosubtext",
        "label": "Logo subtext (text under logo)",
        "options": [
          {
            "value": "Futura, 'Century Gothic', AppleGothic, sans-serif",
            "label": "Futura",
            "group": "Web Safe"
          },
          {
            "value": "Arial, sans-serif",
            "label": "Arial",
            "group": "Web Safe"
          },
          {
            "value": "Georgia, Utopia, 'Times New Roman', Times, serif",
            "label": "Georgia",
            "group": "Web Safe"
          },
          {
            "value": "'Times New Roman', Times, serif",
            "label": "Times New Roman",
            "group": "Web Safe"
          },
          {
            "value": "GWF|Arvo",
            "label": "Arvo",
            "group": "Google Web Fonts"
          },
          {
            "value": "GWF|Brawler",
            "label": "Brawler",
            "group": "Google Web Fonts"
          },
          {
            "value": "GWF|Droid+Serif",
            "label": "Droid Serif",
            "group": "Google Web Fonts"
          },
          {
            "value": "GWF|Montserrat",
            "label": "Montserrat",
            "group": "Google Web Fonts"
          },
          {
            "value": "GWF|Open+Sans",
            "label": "Open Sans",
            "group": "Google Web Fonts"
          },
          {
            "value": "GWF|CUSTOM",
            "label": "-- Custom --",
            "group": "Google Web Fonts"
          }
        ]
      },
      {
        "type": "text",
        "id": "yi3___font_fam_logosubtext_cust",
        "label": "Custom:"
      },
      {
        "type": "text",
        "id": "yi3___font_size_logosubtext",
        "label": "Logo subtext font size"
      },
      {
        "type": "header",
        "content": "Colors"
      },
      {
        "type": "color",
        "id": "font_col_base",
        "label": "Base text"
      },
      {
        "type": "color",
        "id": "font_col_link",
        "label": "Links"
      },
      {
        "type": "color",
        "id": "font_col_link_hover",
        "label": "Link - hover"
      },
      {
        "type": "color",
        "id": "font_col_heads",
        "label": "Headings"
      },
      {
        "type": "color",
        "id": "font_col_shoptitle",
        "label": "Shop name text"
      },
      {
        "type": "color",
        "id": "yi3___font_col_logosubtext",
        "label": "Logo subtext"
      },
      {
        "type": "color",
        "id": "font_col_div",
        "label": "Table lines \/ dividers"
      },
      {
        "type": "color",
        "id": "font_col_input",
        "label": "Form input text"
      },
      {
        "type": "color",
        "id": "font_col_input_bg",
        "label": "Form input background"
      },
      {
        "type": "color",
        "id": "font_col_input_bord",
        "label": "Form input border"
      },
      {
        "type": "color",
        "id": "font_col_error",
        "label": "Error text"
      },
      {
        "type": "color",
        "id": "font_col_error_bg",
        "label": "Error background"
      }
    ]
  },
  {
    "name": "Translations",
    "settings": [
      {
        "type": "paragraph",
        "content": "Here's a quick way to change to some of the more commonly-adjusted text."
      },
      {
        "type": "text",
        "id": "text_head_search",
        "label": "Search page title",
        "default": "Search"
      },
      {
        "type": "text",
        "id": "text_head_cart",
        "label": "Cart page title",
        "default": "Shopping Cart"
      },
      {
        "type": "text",
        "id": "text_head_404",
        "label": "Page not found title",
        "default": "Page not found"
      },
      {
        "type": "text",
        "id": "text_acctlogin",
        "label": "Account login",
        "default": "Account login"
      },
      {
        "type": "text",
        "id": "text_youracct",
        "label": "Your Account (side bar)",
        "default": "Your Account"
      },
      {
        "type": "text",
        "id": "text_logout",
        "label": "Logout (side bar)",
        "default": "Logout"
      },
      {
        "type": "text",
        "id": "text_cart",
        "label": "Cart",
        "default": "Cart"
      },
      {
        "type": "text",
        "id": "text_tocart",
        "label": "Go to Cart (side bar)",
        "default": "Go to Cart"
      },
      {
        "type": "text",
        "id": "text_item",
        "label": "Item",
        "default": "item"
      },
      {
        "type": "text",
        "id": "text_items",
        "label": "Items",
        "default": "items"
      },
      {
        "type": "text",
        "id": "text_tocheckout",
        "label": "Checkout (side bar)",
        "default": "Checkout"
      },
      {
        "type": "text",
        "id": "text_search",
        "label": "Search box text (side bar)",
        "default": "Search"
      },
      {
        "type": "text",
        "id": "text_subs_title",
        "label": "Subscribe to our Newsletter",
        "default": "Subscribe to our Newsletter"
      },
      {
        "type": "text",
        "id": "text_enteremail",
        "label": "Enter your email address",
        "default": "Enter your email address..."
      },
      {
        "type": "text",
        "id": "text_newsthanks",
        "label": "Thank you for your interest!",
        "default": "Thank you for your interest!"
      },
      {
        "type": "text",
        "id": "text_filter_c",
        "label": "Filter: (collection page)",
        "default": "Filter:"
      },
      {
        "type": "text",
        "id": "text_filter_b",
        "label": "Filter: (blog page)",
        "default": "Filter:"
      },
      {
        "type": "text",
        "id": "text_share",
        "label": "Share this: (social sharing buttons)",
        "default": "Share this:"
      },
      {
        "type": "text",
        "id": "text_vendor",
        "label": "Vendor (product page)",
        "default": "Vendor"
      },
      {
        "type": "text",
        "id": "text_monogram",
        "label": "Monogram (product.monogram template page)",
        "default": "Monogram"
      },
      {
        "type": "text",
        "id": "text_addtocart",
        "label": "Add to cart (button)",
        "default": "Add to cart"
      },
      {
        "type": "text",
        "id": "text_addtocart_adding",
        "label": "Adding... (Add to cart button - while adding)",
        "default": "Adding..."
      },
      {
        "type": "text",
        "id": "text_addtocart_added",
        "label": "Thank you! (Add to cart button - after adding)",
        "default": "Added to cart, thank you!"
      },
      {
        "type": "text",
        "id": "text_addnote",
        "label": "Add a note to your order... (cart)",
        "default": "Add a note to your order..."
      },
      {
        "type": "text",
        "id": "text_subtotal",
        "label": "Subtotal (cart)",
        "default": "Subtotal"
      },
      {
        "type": "text",
        "id": "text_undertotal_1",
        "label": "Text under sub total 1 (cart)"
      },
      {
        "type": "text",
        "id": "text_undertotal_2",
        "label": "Text under sub total 2 (cart)"
      },
      {
        "type": "text",
        "id": "text_proceedchkt",
        "label": "Proceed to checkout (cart)",
        "default": "Proceed to Checkout"
      }
    ]
  },
  {
    "name": "Checkout: Shipping Rates Calculator",
    "settings": [
      {
        "type": "select",
        "id": "shipping_calculator",
        "label": "Show the shipping calculator?",
        "options": [
          {
            "value": "Disabled",
            "label": "No"
          },
          {
            "value": "Enabled",
            "label": "Yes"
          }
        ],
        "default": "Enabled"
      },
      {
        "type": "text",
        "id": "shipping_calculator_heading",
        "label": "Heading text",
        "default": "Get shipping estimates"
      },
      {
        "type": "text",
        "id": "shipping_calculator_default_country",
        "label": "Default country selection",
        "default": "United States"
      },
      {
        "type": "paragraph",
        "content": "If your customer is logged-in, the country in his default shipping address will be selected. If you are not sure about the spelling to use here, refer to the first checkout page."
      },
      {
        "type": "text",
        "id": "shipping_calculator_submit_button_label",
        "label": "Submit button label",
        "default": "Calculate shipping"
      },
      {
        "type": "text",
        "id": "shipping_calculator_submit_button_label_disabled",
        "label": "Submit button label when calculating",
        "default": "Calculating..."
      }
    ]
  },
  {
    "name": "Checkout: Additional Agreement",
    "settings": [
      {
        "type": "select",
        "id": "checkout_agree",
        "label": "Show the checkout agreement?",
        "options": [
          {
            "value": "Disabled",
            "label": "No"
          },
          {
            "value": "Enabled",
            "label": "Yes"
          }
        ],
        "default": "Enabled"
      },
      {
        "type": "text",
        "id": "checkout_agree_label",
        "label": "Label text",
        "default": "Do you agree?"
      },
      {
        "type": "text",
        "id": "checkout_agree_value",
        "label": "Checkbox value (positive)",
        "default": "Yes"
      },
      {
        "type": "text",
        "id": "checkout_agree_message",
        "label": "Checkbox explanation",
        "default": "Explanation of the checkbox meaning."
      }
    ]
  },
  {
    "name": "Checkout: Delivery",
    "settings": [
      {
        "type": "header",
        "content": "Generic"
      },
      {
        "type": "text",
        "id": "delivery_heading",
        "label": "Heading text",
        "default": "Delivery Date"
      },
      {
        "type": "header",
        "content": "Delivery Date"
      },
      {
        "type": "select",
        "id": "date_picker",
        "label": "Show the delivery date section?",
        "options": [
          {
            "value": "Disabled",
            "label": "No"
          },
          {
            "value": "Enabled",
            "label": "Yes"
          }
        ],
        "default": "Enabled"
      },
      {
        "type": "text",
        "id": "date_picker_label",
        "label": "Date label text",
        "default": "Select a delivery date:"
      },
      {
        "type": "header",
        "content": "Same Day Delivery"
      },
      {
        "type": "select",
        "id": "date_picker_same_day",
        "label": "Allow same-day delivery?",
        "options": [
          {
            "value": "Disabled",
            "label": "No"
          },
          {
            "value": "Enabled",
            "label": "Yes"
          }
        ],
        "default": "Enabled"
      },
      {
        "type": "number",
        "id": "date_picker_same_day_deadline_time",
        "label": "Hour of the day to disable same day delivery",
        "default": 15,
        "info": "Use 24-hour clock hours (i.e. 3:00pm is \"15\")."
      },
      {
        "type": "header",
        "content": "Vacation Dates"
      },
      {
        "type": "text",
        "id": "date_picker_vacation_date_start",
        "label": "Start date of vacation",
        "default": "December 24, 2016",
        "info": "Dates after this date can not be selected for delivery."
      },
      {
        "type": "text",
        "id": "date_picker_vacation_date_end",
        "label": "End date of vacation",
        "default": "December 27, 2016",
        "info": "Dates before this date can not be selected for delivery."
      },
      {
        "type": "header",
        "content": "Vacation Message"
      },
      {
        "type": "select",
        "id": "date_picker_vacation_message",
        "label": "Show vacation hours message?",
        "options": [
          {
            "value": "Disabled",
            "label": "No"
          },
          {
            "value": "Enabled",
            "label": "Yes"
          }
        ],
        "default": "Enabled",
        "info": "Dates before this date can not be selected for delivery."
      },
      {
        "type": "text",
        "id": "date_picker_vacation_message_heading",
        "label": "Heading for vacation message",
        "default": "Vacation Dates",
        "info": "The start and end date will appear below this heading."
      },
      {
        "type": "text",
        "id": "date_picker_vacation_message_date_start",
        "label": "Text before vacation message start date",
        "default": "Closes before",
        "info": "This will appear under the vacation message heading, and before the start date."
      },
      {
        "type": "text",
        "id": "date_picker_vacation_message_date_end",
        "label": "Text before vacation message end date",
        "default": "Opens after",
        "info": "This will appear under the vacation message heading, and before the end date."
      },
      {
        "type": "text",
        "id": "date_picker_vacation_message_description",
        "label": "Heading for vacation message",
        "default": "Orders will not be delivered nor available for pickup during vacation dates. We apologize for the inconvenience.",
        "info": "This text appears near the vacation message."
      },
      {
        "type": "header",
        "content": "Delivery Time"
      },
      {
        "type": "select",
        "id": "date_picker_time",
        "label": "Show the delivery time section?",
        "options": [
          {
            "value": "Disabled",
            "label": "No"
          },
          {
            "value": "Enabled",
            "label": "Yes"
          }
        ],
        "default": "Disabled"
      },
      {
        "type": "select",
        "id": "date_picker_time_picker",
        "label": "Show the time selector or just a notice instead?",
        "options": [
          {
            "value": "Enabled",
            "label": "Delivery Time Selector (and Notice)"
          },
          {
            "value": "Disabled",
            "label": "Delivery Time Notice"
          }
        ],
        "default": "Enabled"
      },
      {
        "type": "text",
        "id": "date_picker_time_label",
        "label": "Time label text",
        "default": "Select a delivery time:",
        "info": "If your customer hasn't selected a time yet, the text entered here will be shown as the time for delivery."
      },
      {
        "type": "text",
        "id": "date_picker_time_message",
        "label": "Time message text",
        "default": "Please call us to set a delivery time.",
        "info": "If you chose the \"Delivery Time Notice\" setting, the text entered here will display instead of the Delivery Time Notice."
      },
      {
        "type": "select",
        "id": "date_picker_free_preorder",
        "label": "Allow free delivery for pre-orders?",
        "options": [
          {
            "value": "Disabled",
            "label": "No"
          },
          {
            "value": "Enabled",
            "label": "Yes"
          }
        ],
        "default": "Enabled"
      },
      {
        "type": "select",
        "id": "date_picker_pricing",
        "label": "Charge customers based on delivery time?",
        "options": [
          {
            "value": "Disabled",
            "label": "No"
          },
          {
            "value": "Enabled",
            "label": "Yes"
          }
        ],
        "default": "Disabled"
      },
      {
        "type": "select",
        "id": "date_picker_time_asap",
        "label": "Allow ASAP delivery?",
        "options": [
          {
            "value": "Disabled",
            "label": "No"
          },
          {
            "value": "Enabled",
            "label": "Yes"
          }
        ],
        "default": "Disabled"
      },
      {
        "type": "number",
        "id": "date_picker_time_workday_start",
        "label": "Hour of the day for earliest delivery",
        "default": 8,
        "info": "Use 24-hour clock hours (i.e. 3:00pm is \"15\")."
      },
      {
        "type": "header",
        "content": "Location"
      },
      {
        "type": "select",
        "id": "location_picker",
        "label": "Show the delivery location selector?",
        "options": [
          {
            "value": "Disabled",
            "label": "No"
          },
          {
            "value": "Enabled",
            "label": "Yes"
          }
        ],
        "default": "Enabled"
      },
      {
        "type": "text",
        "id": "location_picker_label",
        "label": "Location label text",
        "default": "Enter delivery zip code"
      },
      {
        "type": "text",
        "id": "location_picker_placeholder",
        "label": "Location placeholder text",
        "default": "Please choose the zip code of the delivery location.",
        "info": "If your customer hasn't selected a location yet, the text entered here will be shown as the location for delivery."
      },
      {
        "type": "text",
        "id": "location_picker_message",
        "label": "Location message text",
        "default": "Shipping will be added to your cart based on delivery zip code."
      },
      {
        "type": "text",
        "id": "location_picker_error_message",
        "label": "Location error message text",
        "default": "You must choose a delivery location before continuing.",
        "info": "If a location is not chosen, and pick-up is not selected or disabled, the text entered here will be shown as an error message on checkout."
      },
      {
        "type": "select",
        "id": "location_picker_pickup",
        "label": "Allow In-store Pick-up (No Delivery)?",
        "options": [
          {
            "value": "Disabled",
            "label": "No"
          },
          {
            "value": "Enabled",
            "label": "Yes"
          }
        ],
        "default": "Disabled"
      },
      {
        "type": "text",
        "id": "location_picker_pickup_label",
        "label": "In-store Pick-up label text",
        "default": "Pick-up in-store."
      }
    ]
  },
  {
    "name": "Checkout: Order Note",
    "settings": [
      {
        "type": "select",
        "id": "checkout_note",
        "label": "Show the checkout note?",
        "options": [
          {
            "value": "Disabled",
            "label": "No"
          },
          {
            "value": "Enabled",
            "label": "Yes"
          }
        ],
        "default": "Enabled"
      },
      {
        "type": "select",
        "id": "checkout_note_toggle",
        "label": "Allow checkout note to be toggled?",
        "options": [
          {
            "value": "Disabled",
            "label": "No"
          },
          {
            "value": "Enabled",
            "label": "Yes"
          }
        ],
        "default": "Enabled"
      },
      {
        "type": "text",
        "id": "checkout_note_label",
        "label": "Label text",
        "default": "Is there anything important we should know?"
      }
    ]
  },
  {
    "name": "Checkout: Card Message",
    "settings": [
      {
        "type": "text",
        "id": "card_message_heading",
        "label": "Heading text",
        "default": "Card Message"
      },
      {
        "type": "text",
        "id": "card_message_label",
        "label": "Label text",
        "default": "What would like written on the gift card?"
      }
    ]
  },
  {
    "name": "Advanced",
    "settings": [
      {
        "type": "header",
        "content": "Advanced page layout"
      },
      {
        "type": "select",
        "id": "adv_page_width",
        "label": "Width of a standard page (default 960)",
        "options": [
          {
            "value": "960",
            "label": "960px"
          },
          {
            "value": "1200",
            "label": "1200px"
          },
          {
            "value": "1600",
            "label": "1600px"
          }
        ]
      },
      {
        "type": "text",
        "id": "adv_navpanel_width",
        "label": "Width of the nav panel (default: 260)",
        "default": "260"
      },
      {
        "type": "text",
        "id": "adv_navpanel_gutter",
        "label": "Width of the nav panel gutter (default: 20, this setting is also used to determine the space above the topmost page items)",
        "default": "20"
      },
      {
        "type": "header",
        "content": "Advanced box layout"
      },
      {
        "type": "paragraph",
        "content": "Default (great for 6x4 images): 220px \/ 10px"
      },
      {
        "type": "text",
        "id": "block_width",
        "label": "Box default width (thumbs)"
      },
      {
        "type": "text",
        "id": "block_gut",
        "label": "Box margin"
      },
      {
        "type": "text",
        "id": "block_bord_rad",
        "label": "Box rounded corner radius"
      },
      {
        "type": "checkbox",
        "id": "block_shadow",
        "label": "Box shadow"
      },
      {
        "type": "checkbox",
        "id": "block_prod_trans",
        "label": "Make product box transparent If you save your product images as transparent PNG files, setting this will allow the background to show through."
      },
      {
        "type": "header",
        "content": "Image loading method"
      },
      {
        "type": "checkbox",
        "id": "serve_overlarge_imgs",
        "label": "Large images",
        "info": "Serve larger images in product thumbnails - use this if your images do not fill the boxes. Leave it disabled for faster page-loads if your images fit OK."
      }
    ]
  },
  {
    "name": "Information",
    "settings": [
      {
        "type": "header",
        "content": "Store address"
      },
      {
        "type": "paragraph",
        "content": "This information will appear on your store's Thank You page."
      },
      {
        "type": "text",
        "id": "info_contact_phone",
        "label": "Phone"
      },
      {
        "type": "text",
        "id": "info_contact_email",
        "label": "E-mail address"
      }
    ]
  },
  {
    "name": "Plugin: Reviews",
    "settings": [
      {
        "type": "select",
        "id": "plugin_reviews",
        "label": "Show and allow customer reviews?",
        "options": [
          {
            "value": "Disabled",
            "label": "No"
          },
          {
            "value": "Enabled",
            "label": "Yes"
          }
        ],
        "default": "Disabled"
      },
      {
        "type": "header",
        "content": "Display Location"
      },
      {
        "type": "select",
        "id": "plugin_reviews_display",
        "label": "Plugin display location",
        "options": [
          {
            "value": "product-page",
            "label": "Product Page"
          },
          {
            "value": "product-listing",
            "label": "Product Listings"
          },
          {
            "value": "product-page-listing",
            "label": "Product Page and Product Listings"
          }
        ],
        "default": "product-page-listing"
      }
    ]
  }
]